{
  "status": "success",
  "message": "Success",
  "data": {
    "page": 1,
    "limit": 100,
    "count": 11725,
    "total_pages": 118,
    "pages_fetched": 1,
    "current_page_count": 30,
    "data": [
      {
        "conversion_id": 520896542,
        "offer_id": 4243,
        "aff_sub1": "OEM2",
        "aff_sub2": null,
        "aff_sub3": null,
        "aff_sub4": null,
        "aff_sub5": null,
        "adv_sub1": "203788832242789 | 250617PXN11PX1",
        "adv_sub2": "ฟิล์มหน้าไฮโดรเจล *Hydroplus* Vivo Focus V9 V30 V29 V27 V25 V23e V23 V21 V20SE V20Pro V20 วีโว่ โฟกัส",
        "adv_sub3": "มือถือและอุปกรณ์เสริม",
        "adv_sub4": "EXISTING | APP",
        "adv_sub5": "1055050350 | PREFERRED_NON_CB | ORDERED_IN_DIFFERENT_SHOP",
        "datetime_conversion": "2025-06-17 00:00:32",
        "conversion_status": "pending",
        "affiliate_remarks": null,
        "currency": "USD",
        "sale_amount": "2.72",
        "payout": "0.02",
        "base_payout": "0.00",
        "bonus_payout": "0.00",
        "merchant_id": 103089,
        "offer_name": "Shopee TH - CPS"
      },
      {
        "conversion_id": 521225757,
        "offer_id": 4244,
        "aff_sub1": "OEM3",
        "aff_sub2": null,
        "aff_sub3": null,
        "aff_sub4": null,
        "aff_sub5": null,
        "adv_sub1": "203788870299439 | 250617PXP5AVUS",
        "adv_sub2": "CNC Wind Wing Rotating Side Mirror Universal Reduces Wind Resistance Full Alloy",
        "adv_sub3": "Motorcycles",
        "adv_sub4": "EXISTING | APP",
        "adv_sub5": "1046410954 | C2C_NON_CB | ORDERED_IN_DIFFERENT_SHOP",
        "datetime_conversion": "2025-06-17 00:01:10",
        "conversion_status": "pending",
        "affiliate_remarks": null,
        "currency": "USD",
        "sale_amount": "4.47",
        "payout": "0.04",
        "base_payout": "0.00",
        "bonus_payout": "0.00",
        "merchant_id": 103090,
        "offer_name": "Shopee PH - CPS"
      },
      {
        "conversion_id": 521207151,
        "offer_id": 4223,
        "aff_sub1": "OEM2",
        "aff_sub2": null,
        "aff_sub3": null,
        "aff_sub4": null,
        "aff_sub5": null,
        "adv_sub1": "203788921225193 | 250617PXQNW4VX",
        "adv_sub2": "Summer short sleeved T-shirt men's ice silk top loose men's clothing summer wear Chinese style",
        "adv_sub3": "Men Clothes",
        "adv_sub4": "EXISTING | APP",
        "adv_sub5": "1179302851 | C2C_CB | ORDERED_IN_DIFFERENT_SHOP",
        "datetime_conversion": "2025-06-17 00:02:01",
        "conversion_status": "pending",
        "affiliate_remarks": null,
        "currency": "USD",
        "sale_amount": "3.52",
        "payout": "0.04",
        "base_payout": "0.00",
        "bonus_payout": "0.00",
        "merchant_id": 103069,
        "offer_name": "Shopee MY - CPS"
      },
      {
        "conversion_id": 521207155,
        "offer_id": 4223,
        "aff_sub1": "OEM2",
        "aff_sub2": null,
        "aff_sub3": null,
        "aff_sub4": null,
        "aff_sub5": null,
        "adv_sub1": "203788921225193 | 250617PXQNW4VX",
        "adv_sub2": "Summer short sleeved T-shirt men's ice silk top loose men's clothing summer wear Chinese style",
        "adv_sub3": "Men Clothes",
        "adv_sub4": "EXISTING | APP",
        "adv_sub5": "1179302851 | C2C_CB | ORDERED_IN_DIFFERENT_SHOP",
        "datetime_conversion": "2025-06-17 00:02:01",
        "conversion_status": "pending",
        "affiliate_remarks": null,
        "currency": "USD",
        "sale_amount": "3.52",
        "payout": "0.04",
        "base_payout": "0.00",
        "bonus_payout": "0.00",
        "merchant_id": 103069,
        "offer_name": "Shopee MY - CPS"
      },
      {
        "conversion_id": 520901138,
        "offer_id": 4247,
        "aff_sub1": "OEM3",
        "aff_sub2": null,
        "aff_sub3": null,
        "aff_sub4": null,
        "aff_sub5": null,
        "adv_sub1": "203788922201609 | 250617PXQPU1A4",
        "adv_sub2": "Khăn lau kính NANO 10 / 30 / 50 / 100 MIẾNG chống bám hơi nước, chống sương, mồ hôi, chống nhờn",
        "adv_sub3": "Phụ Kiện Thời Trang",
        "adv_sub4": "EXISTING | APP",
        "adv_sub5": "777916 | PREFERRED_NON_CB | ORDERED_IN_DIFFERENT_SHOP",
        "datetime_conversion": "2025-06-17 00:02:02",
        "conversion_status": "pending",
        "affiliate_remarks": null,
        "currency": "USD",
        "sale_amount": "0.73",
        "payout": "0.03",
        "base_payout": "0.00",
        "bonus_payout": "0.00",
        "merchant_id": 103093,
        "offer_name": "Shopee VN - CPS"
      },
      {
        "conversion_id": 520901139,
        "offer_id": 4247,
        "aff_sub1": "OEM3",
        "aff_sub2": null,
        "aff_sub3": null,
        "aff_sub4": null,
        "aff_sub5": null,
        "adv_sub1": "203788922201609 | 250617PXQPU1A4",
        "adv_sub2": "BĂNG CÁ NHÂN IN HÌNH GẤU CON dễ thương LIWORLDCO 100 MIẾNG / HỘP 7.2 x 1.9 cm",
        "adv_sub3": "Sức Khỏe",
        "adv_sub4": "EXISTING | APP",
        "adv_sub5": "777916 | PREFERRED_NON_CB | ORDERED_IN_DIFFERENT_SHOP",
        "datetime_conversion": "2025-06-17 00:02:02",
        "conversion_status": "pending",
        "affiliate_remarks": null,
        "currency": "USD",
        "sale_amount": "1.27",
        "payout": "0.05",
        "base_payout": "0.00",
        "bonus_payout": "0.00",
        "merchant_id": 103093,
        "offer_name": "Shopee VN - CPS"
      },
      {
        "conversion_id": 520896411,
        "offer_id": 4243,
        "aff_sub1": "OEM3",
        "aff_sub2": null,
        "aff_sub3": null,
        "aff_sub4": null,
        "aff_sub5": null,
        "adv_sub1": "203788929284186 | 250617PXQWK73M",
        "adv_sub2": "Granola Jean Crop เสื้อครอปยีนส์ เเขนระบาย เเต่งสม็อค ดีเทลเเต่งกระดุมสีเเดงด้านหน้า",
        "adv_sub3": "เสื้อผ้าผู้หญิง",
        "adv_sub4": "NEW | APP",
        "adv_sub5": "6733884 | C2C_NON_CB | ORDERED_IN_DIFFERENT_SHOP",
        "datetime_conversion": "2025-06-17 00:02:09",
        "conversion_status": "pending",
        "affiliate_remarks": null,
        "currency": "USD",
        "sale_amount": "0.03",
        "payout": "0.00",
        "base_payout": "0.00",
        "bonus_payout": "0.00",
        "merchant_id": 103089,
        "offer_name": "Shopee TH - CPS"
      },
      {
        "conversion_id": 521225714,
        "offer_id": 4244,
        "aff_sub1": "OEM2",
        "aff_sub2": null,
        "aff_sub3": null,
        "aff_sub4": null,
        "aff_sub5": null,
        "adv_sub1": "2750089760354598878 | 2750089760354598878",
        "adv_sub2": "SAYA ALL 99 w/ freebie",
        "adv_sub3": "TELCO",
        "adv_sub4": "EXISTING | APP",
        "adv_sub5": "171986112 | SHOPEE_MALL_NON_CB | ORDERED_IN_DIFFERENT_SHOP",
        "datetime_conversion": "2025-06-17 00:02:40",
        "conversion_status": "pending",
        "affiliate_remarks": null,
        "currency": "USD",
        "sale_amount": "1.70",
        "payout": "0.01",
        "base_payout": "0.00",
        "bonus_payout": "0.00",
        "merchant_id": 103090,
        "offer_name": "Shopee PH - CPS"
      },
      {
        "conversion_id": 520897287,
        "offer_id": 4260,
        "aff_sub1": "RAMPUP",
        "aff_sub2": null,
        "aff_sub3": null,
        "aff_sub4": null,
        "aff_sub5": null,
        "adv_sub1": "203788991209803 | 250617PXSRMQDS",
        "adv_sub2": "Baterai Maxell LR44 Hearing Aid Battery / Batrai Alat Bantu Dengar / AG13 LR44 L1154 357 A76 1.55V",
        "adv_sub3": "Jam Tangan",
        "adv_sub4": "EXISTING | APP",
        "adv_sub5": "180170601 | PREFERRED_NON_CB | ORDERED_IN_DIFFERENT_SHOP",
        "datetime_conversion": "2025-06-17 00:03:11",
        "conversion_status": "pending",
        "affiliate_remarks": null,
        "currency": "USD",
        "sale_amount": "0.49",
        "payout": "0.01",
        "base_payout": "0.00",
        "bonus_payout": "0.00",
        "merchant_id": 103106,
        "offer_name": "Shopee ID (Media Buyers) - CPS"
      },
      {
        "conversion_id": 520897291,
        "offer_id": 4260,
        "aff_sub1": "RAMPUP",
        "aff_sub2": null,
        "aff_sub3": null,
        "aff_sub4": null,
        "aff_sub5": null,
        "adv_sub1": "203788991209803 | 250617PXSRMQDS",
        "adv_sub2": "BATERAI AA MAXELL ORIGINAL A2, MN1500, MX1500, LR6, R6, 15A,15D - HARGA UNTUK 4 PCS / 4 BUTIR",
        "adv_sub3": "Elektronik",
        "adv_sub4": "EXISTING | APP",
        "adv_sub5": "180170601 | PREFERRED_NON_CB | ORDERED_IN_DIFFERENT_SHOP",
        "datetime_conversion": "2025-06-17 00:03:11",
        "conversion_status": "pending",
        "affiliate_remarks": null,
        "currency": "USD",
        "sale_amount": "1.65",
        "payout": "0.02",
        "base_payout": "0.00",
        "bonus_payout": "0.00",
        "merchant_id": 103106,
        "offer_name": "Shopee ID (Media Buyers) - CPS"
      },
      {
        "conversion_id": 521225605,
        "offer_id": 4244,
        "aff_sub1": "OEM2",
        "aff_sub2": null,
        "aff_sub3": null,
        "aff_sub4": null,
        "aff_sub5": null,
        "adv_sub1": "2750089849306170336 | 2750089849306170336",
        "adv_sub2": "TNT UNLI 5G w/ NSD 249 now P185",
        "adv_sub3": "TELCO",
        "adv_sub4": "EXISTING | APP",
        "adv_sub5": "171986112 | SHOPEE_MALL_NON_CB | ORDERED_IN_DIFFERENT_SHOP",
        "datetime_conversion": "2025-06-17 00:04:09",
        "conversion_status": "pending",
        "affiliate_remarks": null,
        "currency": "USD",
        "sale_amount": "2.61",
        "payout": "0.01",
        "base_payout": "0.00",
        "bonus_payout": "0.00",
        "merchant_id": 103090,
        "offer_name": "Shopee PH - CPS"
      },
      {
        "conversion_id": 520900644,
        "offer_id": 4247,
        "aff_sub1": "OEM3",
        "aff_sub2": null,
        "aff_sub3": null,
        "aff_sub4": null,
        "aff_sub5": null,
        "adv_sub1": "203789072267306 | 250617PXV5XDJW",
        "adv_sub2": "Bộ Củ Cáp Sạc Oppo 5V 2A Sạc nhanh ổn định cho các dòng máy oppo xiaomi vivo samsung",
        "adv_sub3": "Điện Thoại & Phụ Kiện",
        "adv_sub4": "EXISTING | APP",
        "adv_sub5": "190253918 | PREFERRED_NON_CB | ORDERED_IN_DIFFERENT_SHOP",
        "datetime_conversion": "2025-06-17 00:04:32",
        "conversion_status": "pending",
        "affiliate_remarks": null,
        "currency": "USD",
        "sale_amount": "2.14",
        "payout": "0.08",
        "base_payout": "0.00",
        "bonus_payout": "0.00",
        "merchant_id": 103093,
        "offer_name": "Shopee VN - CPS"
      },
      {
        "conversion_id": 520898107,
        "offer_id": 4243,
        "aff_sub1": "OEM2",
        "aff_sub2": null,
        "aff_sub3": null,
        "aff_sub4": null,
        "aff_sub5": null,
        "adv_sub1": "203789080285843 | 250617PXVDK9M8",
        "adv_sub2": "Duchess Coffee Capsule 12 แคปซูล ใช้กับเครื่องระบบ Nescafe Dolce Gusto เท่านั้น",
        "adv_sub3": "อาหารและเครื่องดื่ม",
        "adv_sub4": "EXISTING | APP",
        "adv_sub5": "33277039 | SHOPEE_MALL_NON_CB | ORDERED_IN_DIFFERENT_SHOP",
        "datetime_conversion": "2025-06-17 00:04:40",
        "conversion_status": "pending",
        "affiliate_remarks": null,
        "currency": "USD",
        "sale_amount": "20.86",
        "payout": "0.31",
        "base_payout": "0.00",
        "bonus_payout": "0.00",
        "merchant_id": 103089,
        "offer_name": "Shopee TH - CPS"
      },
      {
        "conversion_id": 521225567,
        "offer_id": 4244,
        "aff_sub1": "OEM2",
        "aff_sub2": null,
        "aff_sub3": null,
        "aff_sub4": null,
        "aff_sub5": null,
        "adv_sub1": "203789096252904 | 250617PXVVTJAB",
        "adv_sub2": "50PCS 30*30cm Marble Wallpaper Adhesive Waterproof Marble Wall Sticker Self-Adhesive Imitation Tile",
        "adv_sub3": "Home & Living",
        "adv_sub4": "EXISTING | APP",
        "adv_sub5": "965404721 | C2C_NON_CB | ORDERED_IN_DIFFERENT_SHOP",
        "datetime_conversion": "2025-06-17 00:04:56",
        "conversion_status": "pending",
        "affiliate_remarks": null,
        "currency": "USD",
        "sale_amount": "6.31",
        "payout": "0.05",
        "base_payout": "0.00",
        "bonus_payout": "0.00",
        "merchant_id": 103090,
        "offer_name": "Shopee PH - CPS"
      },
      {
        "conversion_id": 520898037,
        "offer_id": 4243,
        "aff_sub1": "OEM2",
        "aff_sub2": null,
        "aff_sub3": null,
        "aff_sub4": null,
        "aff_sub5": null,
        "adv_sub1": "203789097220293 | 250617PXVWR9B8",
        "adv_sub2": "รวม น้ำจิ้มงา สูตรเด็ด งาคั่วหม่าล่า พอนสึ หลายขนาด อร่อย กลมกล่อม เพียวฟู้ดส์",
        "adv_sub3": "อาหารและเครื่องดื่ม",
        "adv_sub4": "EXISTING | APP",
        "adv_sub5": "22804927 | PREFERRED_NON_CB | ORDERED_IN_DIFFERENT_SHOP",
        "datetime_conversion": "2025-06-17 00:04:57",
        "conversion_status": "pending",
        "affiliate_remarks": null,
        "currency": "USD",
        "sale_amount": "3.15",
        "payout": "0.05",
        "base_payout": "0.00",
        "bonus_payout": "0.00",
        "merchant_id": 103089,
        "offer_name": "Shopee TH - CPS"
      },
      {
        "conversion_id": 520898039,
        "offer_id": 4243,
        "aff_sub1": "OEM2",
        "aff_sub2": null,
        "aff_sub3": null,
        "aff_sub4": null,
        "aff_sub5": null,
        "adv_sub1": "203789097220293 | 250617PXVWR9B7",
        "adv_sub2": "[คุณภาพสูง] วากาเมะแห้ง เกรด A+ วากาเมะแ ห้ง สามารถใช้สำหรับสลัดหรือซุป สาหร่ายเกาหลีอร่อยมาก wakame แห้ง",
        "adv_sub3": "อาหารและเครื่องดื่ม",
        "adv_sub4": "EXISTING | APP",
        "adv_sub5": "1124368225 | C2C_NON_CB | ORDERED_IN_DIFFERENT_SHOP",
        "datetime_conversion": "2025-06-17 00:04:57",
        "conversion_status": "pending",
        "affiliate_remarks": null,
        "currency": "USD",
        "sale_amount": "2.72",
        "payout": "0.04",
        "base_payout": "0.00",
        "bonus_payout": "0.00",
        "merchant_id": 103089,
        "offer_name": "Shopee TH - CPS"
      },
      {
        "conversion_id": 520898040,
        "offer_id": 4243,
        "aff_sub1": "OEM2",
        "aff_sub2": null,
        "aff_sub3": null,
        "aff_sub4": null,
        "aff_sub5": null,
        "adv_sub1": "203789097220293 | 250617PXVWR9B8",
        "adv_sub2": "รวม น้ำจิ้มงา สูตรเด็ด งาคั่วหม่าล่า พอนสึ หลายขนาด อร่อย กลมกล่อม เพียวฟู้ดส์",
        "adv_sub3": "อาหารและเครื่องดื่ม",
        "adv_sub4": "EXISTING | APP",
        "adv_sub5": "22804927 | PREFERRED_NON_CB | ORDERED_IN_DIFFERENT_SHOP",
        "datetime_conversion": "2025-06-17 00:04:57",
        "conversion_status": "pending",
        "affiliate_remarks": null,
        "currency": "USD",
        "sale_amount": "3.18",
        "payout": "0.05",
        "base_payout": "0.00",
        "bonus_payout": "0.00",
        "merchant_id": 103089,
        "offer_name": "Shopee TH - CPS"
      },
      {
        "conversion_id": 521225555,
        "offer_id": 4244,
        "aff_sub1": "OEM3",
        "aff_sub2": null,
        "aff_sub3": null,
        "aff_sub4": null,
        "aff_sub5": null,
        "adv_sub1": "203789111274881 | 250617PXWB53T4",
        "adv_sub2": "(Free 6 separator)A5/B5 Binder Notebook Refillable Notebooks Notepads School Supplies",
        "adv_sub3": "Stationery",
        "adv_sub4": "EXISTING | APP",
        "adv_sub5": "1274653167 | C2C_CB | ORDERED_IN_DIFFERENT_SHOP",
        "datetime_conversion": "2025-06-17 00:05:11",
        "conversion_status": "pending",
        "affiliate_remarks": null,
        "currency": "USD",
        "sale_amount": "0.37",
        "payout": "0.00",
        "base_payout": "0.00",
        "bonus_payout": "0.00",
        "merchant_id": 103090,
        "offer_name": "Shopee PH - CPS"
      },
      {
        "conversion_id": 521225558,
        "offer_id": 4244,
        "aff_sub1": "OEM3",
        "aff_sub2": null,
        "aff_sub3": null,
        "aff_sub4": null,
        "aff_sub5": null,
        "adv_sub1": "203789111274881 | 250617PXWB53T4",
        "adv_sub2": "(Free 6 separator)A5/B5 Binder Notebook Refillable Notebooks Notepads School Supplies",
        "adv_sub3": "Stationery",
        "adv_sub4": "EXISTING | APP",
        "adv_sub5": "1274653167 | C2C_CB | ORDERED_IN_DIFFERENT_SHOP",
        "datetime_conversion": "2025-06-17 00:05:11",
        "conversion_status": "pending",
        "affiliate_remarks": null,
        "currency": "USD",
        "sale_amount": "1.42",
        "payout": "0.01",
        "base_payout": "0.00",
        "bonus_payout": "0.00",
        "merchant_id": 103090,
        "offer_name": "Shopee PH - CPS"
      },
      {
        "conversion_id": 520897991,
        "offer_id": 4243,
        "aff_sub1": "OEM2",
        "aff_sub2": null,
        "aff_sub3": null,
        "aff_sub4": null,
        "aff_sub5": null,
        "adv_sub1": "203789112299244 | 250617PXWC3Y1Q",
        "adv_sub2": "โอโม น้ำยาซักผ้า สูตรเข้มข้น ขนาด 1300 มล.",
        "adv_sub3": "เครื่องใช้ในบ้าน",
        "adv_sub4": "EXISTING | APP",
        "adv_sub5": "706714041 | PREFERRED_NON_CB | ORDERED_IN_DIFFERENT_SHOP",
        "datetime_conversion": "2025-06-17 00:05:12",
        "conversion_status": "pending",
        "affiliate_remarks": null,
        "currency": "USD",
        "sale_amount": "2.59",
        "payout": "0.02",
        "base_payout": "0.00",
        "bonus_payout": "0.00",
        "merchant_id": 103089,
        "offer_name": "Shopee TH - CPS"
      },
      {
        "conversion_id": 520897994,
        "offer_id": 4243,
        "aff_sub1": "OEM2",
        "aff_sub2": null,
        "aff_sub3": null,
        "aff_sub4": null,
        "aff_sub5": null,
        "adv_sub1": "203789112299244 | 250617PXWC3Y1Q",
        "adv_sub2": "โอโม น้ำยาซักผ้า สูตรเข้มข้น ขนาด 1300 มล.",
        "adv_sub3": "เครื่องใช้ในบ้าน",
        "adv_sub4": "EXISTING | APP",
        "adv_sub5": "706714041 | PREFERRED_NON_CB | ORDERED_IN_DIFFERENT_SHOP",
        "datetime_conversion": "2025-06-17 00:05:12",
        "conversion_status": "pending",
        "affiliate_remarks": null,
        "currency": "USD",
        "sale_amount": "2.59",
        "payout": "0.02",
        "base_payout": "0.00",
        "bonus_payout": "0.00",
        "merchant_id": 103089,
        "offer_name": "Shopee TH - CPS"
      },
      {
        "conversion_id": 520896645,
        "offer_id": 4260,
        "aff_sub1": "OEM3",
        "aff_sub2": null,
        "aff_sub3": null,
        "aff_sub4": null,
        "aff_sub5": null,
        "adv_sub1": "203789125244786 | 250617PXWRF79B",
        "adv_sub2": "kulit jok/sarung jok polos semua motor",
        "adv_sub3": "Sepeda Motor",
        "adv_sub4": "EXISTING | APP",
        "adv_sub5": "409429930 | C2C_NON_CB | ORDERED_IN_DIFFERENT_SHOP",
        "datetime_conversion": "2025-06-17 00:05:26",
        "conversion_status": "pending",
        "affiliate_remarks": null,
        "currency": "USD",
        "sale_amount": "1.95",
        "payout": "0.03",
        "base_payout": "0.00",
        "bonus_payout": "0.00",
        "merchant_id": 103106,
        "offer_name": "Shopee ID (Media Buyers) - CPS"
      },
      {
        "conversion_id": 520896494,
        "offer_id": 4260,
        "aff_sub1": "OEM3",
        "aff_sub2": null,
        "aff_sub3": null,
        "aff_sub4": null,
        "aff_sub5": null,
        "adv_sub1": "203789145257441 | 250617PXXBHUSS",
        "adv_sub2": "PAPAN GILESAN CUCI BAJU / PAPAN GILESAN KARET",
        "adv_sub3": "Perlengkapan Rumah",
        "adv_sub4": "NEW | APP",
        "adv_sub5": "150095653 | PREFERRED_NON_CB | ORDERED_IN_DIFFERENT_SHOP",
        "datetime_conversion": "2025-06-17 00:05:45",
        "conversion_status": "pending",
        "affiliate_remarks": null,
        "currency": "USD",
        "sale_amount": "1.09",
        "payout": "0.02",
        "base_payout": "0.00",
        "bonus_payout": "0.00",
        "merchant_id": 103106,
        "offer_name": "Shopee ID (Media Buyers) - CPS"
      },
      {
        "conversion_id": 520897937,
        "offer_id": 4243,
        "aff_sub1": "OEM2",
        "aff_sub2": null,
        "aff_sub3": null,
        "aff_sub4": null,
        "aff_sub5": null,
        "adv_sub1": "203789148264843 | 250617PXXEDPGJ",
        "adv_sub2": "ฟิล์มกระจก /ฟิล์มไฮโดรเจล สำหรับ ซัมซุง เอ9 8.7 เอ็กซ์115 Use For Samsung Galaxy Tab A9 (2023) SM-X115 (8.7)",
        "adv_sub3": "มือถือและอุปกรณ์เสริม",
        "adv_sub4": "EXISTING | APP",
        "adv_sub5": "29778074 | PREFERRED_NON_CB | ORDERED_IN_DIFFERENT_SHOP",
        "datetime_conversion": "2025-06-17 00:05:48",
        "conversion_status": "pending",
        "affiliate_remarks": null,
        "currency": "USD",
        "sale_amount": "1.14",
        "payout": "0.01",
        "base_payout": "0.00",
        "bonus_payout": "0.00",
        "merchant_id": 103089,
        "offer_name": "Shopee TH - CPS"
      },
      {
        "conversion_id": 520897941,
        "offer_id": 4243,
        "aff_sub1": "OEM2",
        "aff_sub2": null,
        "aff_sub3": null,
        "aff_sub4": null,
        "aff_sub5": null,
        "adv_sub1": "203789148264843 | 250617PXXEDPGJ",
        "adv_sub2": "ฟิล์มกระจก /ฟิล์มไฮโดรเจล สำหรับ ซัมซุง เอ9 8.7 เอ็กซ์115 Use For Samsung Galaxy Tab A9 (2023) SM-X115 (8.7)",
        "adv_sub3": "มือถือและอุปกรณ์เสริม",
        "adv_sub4": "EXISTING | APP",
        "adv_sub5": "29778074 | PREFERRED_NON_CB | ORDERED_IN_DIFFERENT_SHOP",
        "datetime_conversion": "2025-06-17 00:05:48",
        "conversion_status": "pending",
        "affiliate_remarks": null,
        "currency": "USD",
        "sale_amount": "1.51",
        "payout": "0.01",
        "base_payout": "0.00",
        "bonus_payout": "0.00",
        "merchant_id": 103089,
        "offer_name": "Shopee TH - CPS"
      },
      {
        "conversion_id": 521207051,
        "offer_id": 4223,
        "aff_sub1": "OEM2",
        "aff_sub2": null,
        "aff_sub3": null,
        "aff_sub4": null,
        "aff_sub5": null,
        "adv_sub1": "203789160290742 | 250617PXXSVW6F",
        "adv_sub2": "Thickened kitchen wormwood garbage bag deodorant sealed plastic trash can liner household deodorizing garbage bag",
        "adv_sub3": "Home & Living",
        "adv_sub4": "EXISTING | APP",
        "adv_sub5": "280879178 | C2C_NON_CB | ORDERED_IN_DIFFERENT_SHOP",
        "datetime_conversion": "2025-06-17 00:06:00",
        "conversion_status": "pending",
        "affiliate_remarks": null,
        "currency": "USD",
        "sale_amount": "3.08",
        "payout": "0.03",
        "base_payout": "0.00",
        "bonus_payout": "0.00",
        "merchant_id": 103069,
        "offer_name": "Shopee MY - CPS"
      },
      {
        "conversion_id": 521207028,
        "offer_id": 4223,
        "aff_sub1": "OEM2",
        "aff_sub2": null,
        "aff_sub3": null,
        "aff_sub4": null,
        "aff_sub5": null,
        "adv_sub1": "203789193209079 | 250617PXYS9AER",
        "adv_sub2": "GeeParty Easy To Use Knotter Tie Up Fastener Accessories DIY Tools For Latex Balloon Qualatex Alat Ikat Belonl (Random Color）",
        "adv_sub3": "Home & Living",
        "adv_sub4": "EXISTING | APP",
        "adv_sub5": "833679123 | PREFERRED_CB | ORDERED_IN_DIFFERENT_SHOP",
        "datetime_conversion": "2025-06-17 00:06:33",
        "conversion_status": "pending",
        "affiliate_remarks": null,
        "currency": "USD",
        "sale_amount": "0.22",
        "payout": "0.00",
        "base_payout": "0.00",
        "bonus_payout": "0.00",
        "merchant_id": 103069,
        "offer_name": "Shopee MY - CPS"
      },
      {
        "conversion_id": 521207031,
        "offer_id": 4223,
        "aff_sub1": "OEM2",
        "aff_sub2": null,
        "aff_sub3": null,
        "aff_sub4": null,
        "aff_sub5": null,
        "adv_sub1": "203789193209079 | 250617PXYS9AER",
        "adv_sub2": "GeeParty Cheap Price Balloon Stand Belon Balloon Holder Tree Accessories for Happy Birthday Party Decorations （71/135/160cm）",
        "adv_sub3": "Home & Living",
        "adv_sub4": "EXISTING | APP",
        "adv_sub5": "833679123 | PREFERRED_CB | ORDERED_IN_DIFFERENT_SHOP",
        "datetime_conversion": "2025-06-17 00:06:33",
        "conversion_status": "pending",
        "affiliate_remarks": null,
        "currency": "USD",
        "sale_amount": "0.83",
        "payout": "0.01",
        "base_payout": "0.00",
        "bonus_payout": "0.00",
        "merchant_id": 103069,
        "offer_name": "Shopee MY - CPS"
      },
      {
        "conversion_id": 521207036,
        "offer_id": 4223,
        "aff_sub1": "OEM2",
        "aff_sub2": null,
        "aff_sub3": null,
        "aff_sub4": null,
        "aff_sub5": null,
        "adv_sub1": "203789193209079 | 250617PXYS9AER",
        "adv_sub2": "GeeParty Balloon Garland Birthday Party Decoration Set Balloon Arch Stand Valentine Wedding Graduation Party Decor",
        "adv_sub3": "Home & Living",
        "adv_sub4": "EXISTING | APP",
        "adv_sub5": "833679123 | PREFERRED_CB | ORDERED_IN_DIFFERENT_SHOP",
        "datetime_conversion": "2025-06-17 00:06:33",
        "conversion_status": "pending",
        "affiliate_remarks": null,
        "currency": "USD",
        "sale_amount": "4.22",
        "payout": "0.04",
        "base_payout": "0.00",
        "bonus_payout": "0.00",
        "merchant_id": 103069,
        "offer_name": "Shopee MY - CPS"
      },
      {
        "conversion_id": 521207012,
        "offer_id": 4223,
        "aff_sub1": "OEM2",
        "aff_sub2": null,
        "aff_sub3": null,
        "aff_sub4": null,
        "aff_sub5": null,
        "adv_sub1": "203789216246144 | 250617PY0F88GW",
        "adv_sub2": "100% Waterproof Bedsheet Premium Fitted Bedsheet Queen/King Mattress Protector Cover Ready Stock",
        "adv_sub3": "Home & Living",
        "adv_sub4": "EXISTING | APP",
        "adv_sub5": "348898664 | C2C_NON_CB | ORDERED_IN_DIFFERENT_SHOP",
        "datetime_conversion": "2025-06-17 00:06:56",
        "conversion_status": "pending",
        "affiliate_remarks": null,
        "currency": "USD",
        "sale_amount": "5.12",
        "payout": "0.05",
        "base_payout": "0.00",
        "bonus_payout": "0.00",
        "merchant_id": 103069,
        "offer_name": "Shopee MY - CPS"
      }
    ]
  }
}